%YAML 1.1
%TAG !u! tag:unity3d.com,2011:
--- !u!114 &11400000
MonoBehaviour:
  m_ObjectHideFlags: 0
  m_CorrespondingSourceObject: {fileID: 0}
  m_PrefabInstance: {fileID: 0}
  m_PrefabAsset: {fileID: 0}
  m_GameObject: {fileID: 0}
  m_Enabled: 1
  m_EditorHideFlags: 0
  m_Script: {fileID: 11500000, guid: 47535db7e479f0b44aa6f02dcf6e3201, type: 3}
  m_Name: EazeDifficult
  m_EditorClassIdentifier: 
  <Difficult>k__BackingField: 0
  <MinRangeCost>k__BackingField: 10
  <MaxRangeCost>k__BackingField: 20000
  <MoneyCount>k__BackingField: 2
  <RoundsCount>k__BackingField: 6
